ma206x_sectioning – MA206X: Probability and Statistics
…
Code

df_sample

# A tibble: 136 × 26
   cnum     last  first email sex      yr co    maj   maj2  min    apsc apsc_maj
   <chr>    <chr> <chr> <chr> <chr> <dbl> <chr> <chr> <chr> <chr> <dbl>    <dbl>
 1 C360497… GELD… FRAN… fran… M      2028 F4    ORE2  null  null   2.19     0   
 2 C772022… REBO… SABR… sabr… F      2028 A2    ASD0  null  null   2.12     0   
 3 C317408… MERC… MASON maso… M      2028 C3    HUS3T null  null   2.24     0   
 4 C383737… SCHM… WALT… walt… M      2028 G4    ENM1  null  null   2.35     0   
 5 C185030… BELL  JAXS… jaxs… M      2028 D4    SDS1  null  null   2.15     3.33
 6 C575418… TORR… ISIS  isis… F      2026 E3    MEN3  null  null   2.22     2.11
 7 C480196… PECK… NATH… nath… M      2028 H1    SSC0  null  null   2.29     0   
 8 C098567… MOORE TAYT… tayt… F      2028 H1    ENL2  null  null   2.28     0   
 9 C897564… MCGL… ALEK  alek… M      2028 E2    BEO0  null  null   2.18     0   
10 C648214… DE S… JOSE… jose… F      2028 E1    PIF0  null  null   2.32     0   
# ℹ 126 more rows
# ℹ 14 more variables: cqpa <dbl>, en_seq <chr>, corps_squad <chr>,
#   activity <chr>, ma103 <chr>, ma104 <chr>, ma153 <chr>, ma205 <chr>,
#   cy105 <chr>, cy305 <chr>, stem_flag <dbl>, jedi <dbl>, bin <int>, w <dbl>

Code

df

# A tibble: 456 × 24
   cnum     last  first email sex      yr co    maj   maj2  min    apsc apsc_maj
   <chr>    <chr> <chr> <chr> <chr> <dbl> <chr> <chr> <chr> <chr> <dbl>    <dbl>
 1 C713523… ABDA… IAN   ian.… M      2028 H1    ENM1  null  null   3.72     0   
 2 C207421… ABOUD AIDAN aida… M      2028 I4    ENL2  null  null   4.28     0   
 3 C545211… ACEV… ANGEL ange… M      2028 A3    CEN2  null  null   2.81     0   
 4 C613922… ACUN… OLIV… oliv… M      2028 D1    ENM1  null  null   2.56     0   
 5 C965985… AEMI… HANN… hann… F      2028 G2    ORE2  null  RSE1N  3.61     0   
 6 C467024… AGRO  SALV… salv… M      2028 C2    ENM1  null  null   2.78     0   
 7 C277387… AIRD  ZAND… zand… M      2028 E3    ENM1  null  null   2.46     0   
 8 C717140… AMBR… OMAR  omar… M      2028 G3    CVN3  null  null   2.83     0   
 9 C722892… ANDE… RILEY rile… F      2028 E3    ESC3  null  null   3.33     3.33
10 C784889… ANDE… BRAD… brad… M      2028 I3    MGN0  null  null   2.52     0   
# ℹ 446 more rows
# ℹ 12 more variables: cqpa <dbl>, en_seq <chr>, corps_squad <chr>,
#   activity <chr>, ma103 <chr>, ma104 <chr>, ma153 <chr>, ma205 <chr>,
#   cy105 <chr>, cy305 <chr>, stem_flag <dbl>, jedi <dbl>
…
